^C:\USERS\MAGSHIMIM\DOCUMENTS\PROGRAMMING\ADVANCED PROGRAMMING\LESSON 5\GRAPHICALPAINTER\GRAPHICPAINTER\MAIN.CPP|C:\USERS\MAGSHIMIM\DOCUMENTS\PROGRAMMING\ADVANCED PROGRAMMING\LESSON 5\GRAPHICALPAINTER\GRAPHICPAINTER\MENU.CPP|C:\USERS\MAGSHIMIM\DOCUMENTS\PROGRAMMING\ADVANCED PROGRAMMING\LESSON 5\GRAPHICALPAINTER\GRAPHICPAINTER\RECTANGLE.CPP|C:\USERS\MAGSHIMIM\DOCUMENTS\PROGRAMMING\ADVANCED PROGRAMMING\LESSON 5\GRAPHICALPAINTER\GRAPHICPAINTER\SHAPE.CPP|C:\USERS\MAGSHIMIM\DOCUMENTS\PROGRAMMING\ADVANCED PROGRAMMING\LESSON 5\GRAPHICALPAINTER\GRAPHICPAINTER\TRIANGLE.CPP
C:\USERS\MAGSHIMIM\DOCUMENTS\PROGRAMMING\ADVANCED PROGRAMMING\LESSON 5\GRAPHICALPAINTER\GRAPHICPAINTER\DEBUG\VC141.PDB
C:\USERS\MAGSHIMIM\DOCUMENTS\PROGRAMMING\ADVANCED PROGRAMMING\LESSON 5\GRAPHICALPAINTER\GRAPHICPAINTER\DEBUG\VC141.IDB
C:\USERS\MAGSHIMIM\DOCUMENTS\PROGRAMMING\ADVANCED PROGRAMMING\LESSON 5\GRAPHICALPAINTER\GRAPHICPAINTER\DEBUG\SHAPE.OBJ
C:\USERS\MAGSHIMIM\DOCUMENTS\PROGRAMMING\ADVANCED PROGRAMMING\LESSON 5\GRAPHICALPAINTER\GRAPHICPAINTER\DEBUG\MENU.OBJ
C:\USERS\MAGSHIMIM\DOCUMENTS\PROGRAMMING\ADVANCED PROGRAMMING\LESSON 5\GRAPHICALPAINTER\GRAPHICPAINTER\DEBUG\MAIN.OBJ
^C:\USERS\MAGSHIMIM\DOCUMENTS\PROGRAMMING\ADVANCED PROGRAMMING\LESSON 5\GRAPHICALPAINTER\GRAPHICPAINTER\RECTANGLE.CPP|C:\USERS\MAGSHIMIM\DOCUMENTS\PROGRAMMING\ADVANCED PROGRAMMING\LESSON 5\GRAPHICALPAINTER\GRAPHICPAINTER\TRIANGLE.CPP
C:\USERS\MAGSHIMIM\DOCUMENTS\PROGRAMMING\ADVANCED PROGRAMMING\LESSON 5\GRAPHICALPAINTER\GRAPHICPAINTER\DEBUG\VC141.PDB
C:\USERS\MAGSHIMIM\DOCUMENTS\PROGRAMMING\ADVANCED PROGRAMMING\LESSON 5\GRAPHICALPAINTER\GRAPHICPAINTER\DEBUG\VC141.IDB
C:\USERS\MAGSHIMIM\DOCUMENTS\PROGRAMMING\ADVANCED PROGRAMMING\LESSON 5\GRAPHICALPAINTER\GRAPHICPAINTER\DEBUG\TRIANGLE.OBJ
C:\USERS\MAGSHIMIM\DOCUMENTS\PROGRAMMING\ADVANCED PROGRAMMING\LESSON 5\GRAPHICALPAINTER\GRAPHICPAINTER\DEBUG\RECTANGLE.OBJ
^C:\USERS\MAGSHIMIM\DOCUMENTS\PROGRAMMING\ADVANCED PROGRAMMING\LESSON 5\GRAPHICALPAINTER\GRAPHICPAINTER\ARROW.CPP|C:\USERS\MAGSHIMIM\DOCUMENTS\PROGRAMMING\ADVANCED PROGRAMMING\LESSON 5\GRAPHICALPAINTER\GRAPHICPAINTER\MAIN.CPP|C:\USERS\MAGSHIMIM\DOCUMENTS\PROGRAMMING\ADVANCED PROGRAMMING\LESSON 5\GRAPHICALPAINTER\GRAPHICPAINTER\MENU.CPP
C:\USERS\MAGSHIMIM\DOCUMENTS\PROGRAMMING\ADVANCED PROGRAMMING\LESSON 5\GRAPHICALPAINTER\GRAPHICPAINTER\DEBUG\VC141.PDB
C:\USERS\MAGSHIMIM\DOCUMENTS\PROGRAMMING\ADVANCED PROGRAMMING\LESSON 5\GRAPHICALPAINTER\GRAPHICPAINTER\DEBUG\VC141.IDB
C:\USERS\MAGSHIMIM\DOCUMENTS\PROGRAMMING\ADVANCED PROGRAMMING\LESSON 5\GRAPHICALPAINTER\GRAPHICPAINTER\DEBUG\MAIN.OBJ
C:\USERS\MAGSHIMIM\DOCUMENTS\PROGRAMMING\ADVANCED PROGRAMMING\LESSON 5\GRAPHICALPAINTER\GRAPHICPAINTER\DEBUG\MENU.OBJ
C:\USERS\MAGSHIMIM\DOCUMENTS\PROGRAMMING\ADVANCED PROGRAMMING\LESSON 5\GRAPHICALPAINTER\GRAPHICPAINTER\DEBUG\ARROW.OBJ
^C:\USERS\MAGSHIMIM\DOCUMENTS\PROGRAMMING\ADVANCED PROGRAMMING\LESSON 5\GRAPHICALPAINTER\GRAPHICPAINTER\MAIN.CPP|C:\USERS\MAGSHIMIM\DOCUMENTS\PROGRAMMING\ADVANCED PROGRAMMING\LESSON 5\GRAPHICALPAINTER\GRAPHICPAINTER\MENU.CPP|C:\USERS\MAGSHIMIM\DOCUMENTS\PROGRAMMING\ADVANCED PROGRAMMING\LESSON 5\GRAPHICALPAINTER\GRAPHICPAINTER\TRIANGLE.CPP
C:\USERS\MAGSHIMIM\DOCUMENTS\PROGRAMMING\ADVANCED PROGRAMMING\LESSON 5\GRAPHICALPAINTER\GRAPHICPAINTER\DEBUG\VC141.PDB
C:\USERS\MAGSHIMIM\DOCUMENTS\PROGRAMMING\ADVANCED PROGRAMMING\LESSON 5\GRAPHICALPAINTER\GRAPHICPAINTER\DEBUG\VC141.IDB
C:\USERS\MAGSHIMIM\DOCUMENTS\PROGRAMMING\ADVANCED PROGRAMMING\LESSON 5\GRAPHICALPAINTER\GRAPHICPAINTER\DEBUG\MAIN.OBJ
C:\USERS\MAGSHIMIM\DOCUMENTS\PROGRAMMING\ADVANCED PROGRAMMING\LESSON 5\GRAPHICALPAINTER\GRAPHICPAINTER\DEBUG\TRIANGLE.OBJ
C:\USERS\MAGSHIMIM\DOCUMENTS\PROGRAMMING\ADVANCED PROGRAMMING\LESSON 5\GRAPHICALPAINTER\GRAPHICPAINTER\DEBUG\MENU.OBJ
^C:\USERS\MAGSHIMIM\DOCUMENTS\PROGRAMMING\ADVANCED PROGRAMMING\LESSON 5\GRAPHICALPAINTER\GRAPHICPAINTER\POLYGON.CPP|C:\USERS\MAGSHIMIM\DOCUMENTS\PROGRAMMING\ADVANCED PROGRAMMING\LESSON 5\GRAPHICALPAINTER\GRAPHICPAINTER\TRIANGLE.CPP
C:\USERS\MAGSHIMIM\DOCUMENTS\PROGRAMMING\ADVANCED PROGRAMMING\LESSON 5\GRAPHICALPAINTER\GRAPHICPAINTER\DEBUG\VC141.PDB
C:\USERS\MAGSHIMIM\DOCUMENTS\PROGRAMMING\ADVANCED PROGRAMMING\LESSON 5\GRAPHICALPAINTER\GRAPHICPAINTER\DEBUG\VC141.IDB
C:\USERS\MAGSHIMIM\DOCUMENTS\PROGRAMMING\ADVANCED PROGRAMMING\LESSON 5\GRAPHICALPAINTER\GRAPHICPAINTER\DEBUG\TRIANGLE.OBJ
C:\USERS\MAGSHIMIM\DOCUMENTS\PROGRAMMING\ADVANCED PROGRAMMING\LESSON 5\GRAPHICALPAINTER\GRAPHICPAINTER\DEBUG\POLYGON.OBJ
^C:\USERS\MAGSHIMIM\DOCUMENTS\PROGRAMMING\ADVANCED PROGRAMMING\LESSON 5\GRAPHICALPAINTER\GRAPHICPAINTER\MAIN.CPP|C:\USERS\MAGSHIMIM\DOCUMENTS\PROGRAMMING\ADVANCED PROGRAMMING\LESSON 5\GRAPHICALPAINTER\GRAPHICPAINTER\MENU.CPP|C:\USERS\MAGSHIMIM\DOCUMENTS\PROGRAMMING\ADVANCED PROGRAMMING\LESSON 5\GRAPHICALPAINTER\GRAPHICPAINTER\RECTANGLE.CPP
C:\USERS\MAGSHIMIM\DOCUMENTS\PROGRAMMING\ADVANCED PROGRAMMING\LESSON 5\GRAPHICALPAINTER\GRAPHICPAINTER\DEBUG\VC141.PDB
C:\USERS\MAGSHIMIM\DOCUMENTS\PROGRAMMING\ADVANCED PROGRAMMING\LESSON 5\GRAPHICALPAINTER\GRAPHICPAINTER\DEBUG\VC141.IDB
C:\USERS\MAGSHIMIM\DOCUMENTS\PROGRAMMING\ADVANCED PROGRAMMING\LESSON 5\GRAPHICALPAINTER\GRAPHICPAINTER\DEBUG\MAIN.OBJ
C:\USERS\MAGSHIMIM\DOCUMENTS\PROGRAMMING\ADVANCED PROGRAMMING\LESSON 5\GRAPHICALPAINTER\GRAPHICPAINTER\DEBUG\RECTANGLE.OBJ
C:\USERS\MAGSHIMIM\DOCUMENTS\PROGRAMMING\ADVANCED PROGRAMMING\LESSON 5\GRAPHICALPAINTER\GRAPHICPAINTER\DEBUG\MENU.OBJ
^C:\USERS\MAGSHIMIM\DOCUMENTS\PROGRAMMING\ADVANCED PROGRAMMING\LESSON 5\GRAPHICALPAINTER\GRAPHICPAINTER\MAIN.CPP|C:\USERS\MAGSHIMIM\DOCUMENTS\PROGRAMMING\ADVANCED PROGRAMMING\LESSON 5\GRAPHICALPAINTER\GRAPHICPAINTER\MENU.CPP|C:\USERS\MAGSHIMIM\DOCUMENTS\PROGRAMMING\ADVANCED PROGRAMMING\LESSON 5\GRAPHICALPAINTER\GRAPHICPAINTER\SHAPE.CPP
C:\USERS\MAGSHIMIM\DOCUMENTS\PROGRAMMING\ADVANCED PROGRAMMING\LESSON 5\GRAPHICALPAINTER\GRAPHICPAINTER\DEBUG\VC141.PDB
C:\USERS\MAGSHIMIM\DOCUMENTS\PROGRAMMING\ADVANCED PROGRAMMING\LESSON 5\GRAPHICALPAINTER\GRAPHICPAINTER\DEBUG\VC141.IDB
C:\USERS\MAGSHIMIM\DOCUMENTS\PROGRAMMING\ADVANCED PROGRAMMING\LESSON 5\GRAPHICALPAINTER\GRAPHICPAINTER\DEBUG\MAIN.OBJ
C:\USERS\MAGSHIMIM\DOCUMENTS\PROGRAMMING\ADVANCED PROGRAMMING\LESSON 5\GRAPHICALPAINTER\GRAPHICPAINTER\DEBUG\SHAPE.OBJ
C:\USERS\MAGSHIMIM\DOCUMENTS\PROGRAMMING\ADVANCED PROGRAMMING\LESSON 5\GRAPHICALPAINTER\GRAPHICPAINTER\DEBUG\MENU.OBJ
^C:\USERS\MAGSHIMIM\DOCUMENTS\PROGRAMMING\ADVANCED PROGRAMMING\LESSON 5\GRAPHICALPAINTER\GRAPHICPAINTER\CIRCLE.CPP|C:\USERS\MAGSHIMIM\DOCUMENTS\PROGRAMMING\ADVANCED PROGRAMMING\LESSON 5\GRAPHICALPAINTER\GRAPHICPAINTER\MAIN.CPP|C:\USERS\MAGSHIMIM\DOCUMENTS\PROGRAMMING\ADVANCED PROGRAMMING\LESSON 5\GRAPHICALPAINTER\GRAPHICPAINTER\MENU.CPP
C:\USERS\MAGSHIMIM\DOCUMENTS\PROGRAMMING\ADVANCED PROGRAMMING\LESSON 5\GRAPHICALPAINTER\GRAPHICPAINTER\DEBUG\VC141.PDB
C:\USERS\MAGSHIMIM\DOCUMENTS\PROGRAMMING\ADVANCED PROGRAMMING\LESSON 5\GRAPHICALPAINTER\GRAPHICPAINTER\DEBUG\VC141.IDB
C:\USERS\MAGSHIMIM\DOCUMENTS\PROGRAMMING\ADVANCED PROGRAMMING\LESSON 5\GRAPHICALPAINTER\GRAPHICPAINTER\DEBUG\MAIN.OBJ
C:\USERS\MAGSHIMIM\DOCUMENTS\PROGRAMMING\ADVANCED PROGRAMMING\LESSON 5\GRAPHICALPAINTER\GRAPHICPAINTER\DEBUG\MENU.OBJ
C:\USERS\MAGSHIMIM\DOCUMENTS\PROGRAMMING\ADVANCED PROGRAMMING\LESSON 5\GRAPHICALPAINTER\GRAPHICPAINTER\DEBUG\CIRCLE.OBJ
^C:\USERS\MAGSHIMIM\DOCUMENTS\PROGRAMMING\ADVANCED PROGRAMMING\LESSON 5\GRAPHICALPAINTER\GRAPHICPAINTER\ARROW.CPP|C:\USERS\MAGSHIMIM\DOCUMENTS\PROGRAMMING\ADVANCED PROGRAMMING\LESSON 5\GRAPHICALPAINTER\GRAPHICPAINTER\CIRCLE.CPP|C:\USERS\MAGSHIMIM\DOCUMENTS\PROGRAMMING\ADVANCED PROGRAMMING\LESSON 5\GRAPHICALPAINTER\GRAPHICPAINTER\MAIN.CPP|C:\USERS\MAGSHIMIM\DOCUMENTS\PROGRAMMING\ADVANCED PROGRAMMING\LESSON 5\GRAPHICALPAINTER\GRAPHICPAINTER\MENU.CPP|C:\USERS\MAGSHIMIM\DOCUMENTS\PROGRAMMING\ADVANCED PROGRAMMING\LESSON 5\GRAPHICALPAINTER\GRAPHICPAINTER\POINT.CPP|C:\USERS\MAGSHIMIM\DOCUMENTS\PROGRAMMING\ADVANCED PROGRAMMING\LESSON 5\GRAPHICALPAINTER\GRAPHICPAINTER\POLYGON.CPP|C:\USERS\MAGSHIMIM\DOCUMENTS\PROGRAMMING\ADVANCED PROGRAMMING\LESSON 5\GRAPHICALPAINTER\GRAPHICPAINTER\RECTANGLE.CPP|C:\USERS\MAGSHIMIM\DOCUMENTS\PROGRAMMING\ADVANCED PROGRAMMING\LESSON 5\GRAPHICALPAINTER\GRAPHICPAINTER\SHAPE.CPP|C:\USERS\MAGSHIMIM\DOCUMENTS\PROGRAMMING\ADVANCED PROGRAMMING\LESSON 5\GRAPHICALPAINTER\GRAPHICPAINTER\TRIANGLE.CPP
C:\USERS\MAGSHIMIM\DOCUMENTS\PROGRAMMING\ADVANCED PROGRAMMING\LESSON 5\GRAPHICALPAINTER\GRAPHICPAINTER\DEBUG\VC141.PDB
C:\USERS\MAGSHIMIM\DOCUMENTS\PROGRAMMING\ADVANCED PROGRAMMING\LESSON 5\GRAPHICALPAINTER\GRAPHICPAINTER\DEBUG\VC141.IDB
C:\USERS\MAGSHIMIM\DOCUMENTS\PROGRAMMING\ADVANCED PROGRAMMING\LESSON 5\GRAPHICALPAINTER\GRAPHICPAINTER\DEBUG\MAIN.OBJ
C:\USERS\MAGSHIMIM\DOCUMENTS\PROGRAMMING\ADVANCED PROGRAMMING\LESSON 5\GRAPHICALPAINTER\GRAPHICPAINTER\DEBUG\TRIANGLE.OBJ
C:\USERS\MAGSHIMIM\DOCUMENTS\PROGRAMMING\ADVANCED PROGRAMMING\LESSON 5\GRAPHICALPAINTER\GRAPHICPAINTER\DEBUG\SHAPE.OBJ
C:\USERS\MAGSHIMIM\DOCUMENTS\PROGRAMMING\ADVANCED PROGRAMMING\LESSON 5\GRAPHICALPAINTER\GRAPHICPAINTER\DEBUG\RECTANGLE.OBJ
C:\USERS\MAGSHIMIM\DOCUMENTS\PROGRAMMING\ADVANCED PROGRAMMING\LESSON 5\GRAPHICALPAINTER\GRAPHICPAINTER\DEBUG\POLYGON.OBJ
C:\USERS\MAGSHIMIM\DOCUMENTS\PROGRAMMING\ADVANCED PROGRAMMING\LESSON 5\GRAPHICALPAINTER\GRAPHICPAINTER\DEBUG\POINT.OBJ
C:\USERS\MAGSHIMIM\DOCUMENTS\PROGRAMMING\ADVANCED PROGRAMMING\LESSON 5\GRAPHICALPAINTER\GRAPHICPAINTER\DEBUG\MENU.OBJ
C:\USERS\MAGSHIMIM\DOCUMENTS\PROGRAMMING\ADVANCED PROGRAMMING\LESSON 5\GRAPHICALPAINTER\GRAPHICPAINTER\DEBUG\CIRCLE.OBJ
C:\USERS\MAGSHIMIM\DOCUMENTS\PROGRAMMING\ADVANCED PROGRAMMING\LESSON 5\GRAPHICALPAINTER\GRAPHICPAINTER\DEBUG\ARROW.OBJ
^C:\USERS\MAGSHIMIM\DOCUMENTS\PROGRAMMING\ADVANCED PROGRAMMING\LESSON 5\GRAPHICALPAINTER\GRAPHICPAINTER\ARROW.CPP
C:\USERS\MAGSHIMIM\DOCUMENTS\PROGRAMMING\ADVANCED PROGRAMMING\LESSON 5\GRAPHICALPAINTER\GRAPHICPAINTER\DEBUG\VC141.PDB
^C:\USERS\MAGSHIMIM\DOCUMENTS\PROGRAMMING\ADVANCED PROGRAMMING\LESSON 5\GRAPHICALPAINTER\GRAPHICPAINTER\CIRCLE.CPP
C:\USERS\MAGSHIMIM\DOCUMENTS\PROGRAMMING\ADVANCED PROGRAMMING\LESSON 5\GRAPHICALPAINTER\GRAPHICPAINTER\DEBUG\VC141.PDB
^C:\USERS\MAGSHIMIM\DOCUMENTS\PROGRAMMING\ADVANCED PROGRAMMING\LESSON 5\GRAPHICALPAINTER\GRAPHICPAINTER\POINT.CPP
C:\USERS\MAGSHIMIM\DOCUMENTS\PROGRAMMING\ADVANCED PROGRAMMING\LESSON 5\GRAPHICALPAINTER\GRAPHICPAINTER\DEBUG\VC141.PDB
^C:\USERS\MAGSHIMIM\DOCUMENTS\PROGRAMMING\ADVANCED PROGRAMMING\LESSON 5\GRAPHICALPAINTER\GRAPHICPAINTER\POLYGON.CPP
C:\USERS\MAGSHIMIM\DOCUMENTS\PROGRAMMING\ADVANCED PROGRAMMING\LESSON 5\GRAPHICALPAINTER\GRAPHICPAINTER\DEBUG\VC141.PDB
^C:\USERS\MAGSHIMIM\DOCUMENTS\PROGRAMMING\ADVANCED PROGRAMMING\LESSON 5\GRAPHICALPAINTER\GRAPHICPAINTER\TRIANGLE.CPP
C:\USERS\MAGSHIMIM\DOCUMENTS\PROGRAMMING\ADVANCED PROGRAMMING\LESSON 5\GRAPHICALPAINTER\GRAPHICPAINTER\DEBUG\VC141.PDB
^C:\USERS\MAGSHIMIM\DOCUMENTS\PROGRAMMING\ADVANCED PROGRAMMING\LESSON 5\GRAPHICALPAINTER\GRAPHICPAINTER\SHAPE.CPP
C:\USERS\MAGSHIMIM\DOCUMENTS\PROGRAMMING\ADVANCED PROGRAMMING\LESSON 5\GRAPHICALPAINTER\GRAPHICPAINTER\DEBUG\VC141.PDB
C:\USERS\MAGSHIMIM\DOCUMENTS\PROGRAMMING\ADVANCED PROGRAMMING\LESSON 5\GRAPHICALPAINTER\GRAPHICPAINTER\DEBUG\VC141.IDB
C:\USERS\MAGSHIMIM\DOCUMENTS\PROGRAMMING\ADVANCED PROGRAMMING\LESSON 5\GRAPHICALPAINTER\GRAPHICPAINTER\DEBUG\SHAPE.OBJ
^C:\USERS\MAGSHIMIM\DOCUMENTS\PROGRAMMING\ADVANCED PROGRAMMING\LESSON 5\GRAPHICALPAINTER\GRAPHICPAINTER\RECTANGLE.CPP
C:\USERS\MAGSHIMIM\DOCUMENTS\PROGRAMMING\ADVANCED PROGRAMMING\LESSON 5\GRAPHICALPAINTER\GRAPHICPAINTER\DEBUG\VC141.PDB
C:\USERS\MAGSHIMIM\DOCUMENTS\PROGRAMMING\ADVANCED PROGRAMMING\LESSON 5\GRAPHICALPAINTER\GRAPHICPAINTER\DEBUG\VC141.IDB
C:\USERS\MAGSHIMIM\DOCUMENTS\PROGRAMMING\ADVANCED PROGRAMMING\LESSON 5\GRAPHICALPAINTER\GRAPHICPAINTER\DEBUG\RECTANGLE.OBJ
^C:\USERS\MAGSHIMIM\DOCUMENTS\PROGRAMMING\ADVANCED PROGRAMMING\LESSON 5\GRAPHICALPAINTER\GRAPHICPAINTER\MAIN.CPP|C:\USERS\MAGSHIMIM\DOCUMENTS\PROGRAMMING\ADVANCED PROGRAMMING\LESSON 5\GRAPHICALPAINTER\GRAPHICPAINTER\MENU.CPP
C:\USERS\MAGSHIMIM\DOCUMENTS\PROGRAMMING\ADVANCED PROGRAMMING\LESSON 5\GRAPHICALPAINTER\GRAPHICPAINTER\DEBUG\VC141.PDB
C:\USERS\MAGSHIMIM\DOCUMENTS\PROGRAMMING\ADVANCED PROGRAMMING\LESSON 5\GRAPHICALPAINTER\GRAPHICPAINTER\DEBUG\VC141.IDB
C:\USERS\MAGSHIMIM\DOCUMENTS\PROGRAMMING\ADVANCED PROGRAMMING\LESSON 5\GRAPHICALPAINTER\GRAPHICPAINTER\DEBUG\MAIN.OBJ
C:\USERS\MAGSHIMIM\DOCUMENTS\PROGRAMMING\ADVANCED PROGRAMMING\LESSON 5\GRAPHICALPAINTER\GRAPHICPAINTER\DEBUG\MENU.OBJ
^C:\USERS\MAGSHIMIM\DOCUMENTS\PROGRAMMING\ADVANCED PROGRAMMING\LESSON 5\GRAPHICALPAINTER\GRAPHICPAINTER\MENU.CPP
C:\USERS\MAGSHIMIM\DOCUMENTS\PROGRAMMING\ADVANCED PROGRAMMING\LESSON 5\GRAPHICALPAINTER\GRAPHICPAINTER\DEBUG\VC141.PDB
^C:\USERS\MAGSHIMIM\DOCUMENTS\PROGRAMMING\ADVANCED PROGRAMMING\LESSON 5\GRAPHICALPAINTER\GRAPHICPAINTER\MAIN.CPP
C:\USERS\MAGSHIMIM\DOCUMENTS\PROGRAMMING\ADVANCED PROGRAMMING\LESSON 5\GRAPHICALPAINTER\GRAPHICPAINTER\DEBUG\VC141.PDB
